%YAML 1.1
%TAG !u! tag:unity3d.com,2011:
--- !u!114 &11400000
MonoBehaviour:
  m_ObjectHideFlags: 0
  m_CorrespondingSourceObject: {fileID: 0}
  m_PrefabInstance: {fileID: 0}
  m_PrefabAsset: {fileID: 0}
  m_GameObject: {fileID: 0}
  m_Enabled: 1
  m_EditorHideFlags: 0
  m_Script: {fileID: 11500000, guid: 4a3f5ca277f6cc844b344a7de78bab51, type: 3}
  m_Name: StatusVFX_Library
  m_EditorClassIdentifier: 
  poisonedStatusEffect: {fileID: 9178668091963819751, guid: 2cd2ae5c9d6c51b44a2e86319d7268f7,
    type: 3}
  paralizedStatusEffect: {fileID: 9148987361113340516, guid: 8537b91e7c38d7348be8f4ce8e3c49fe,
    type: 3}
